21:00:00 	 D1P 	 
21:32:00 	 BUT 	 Emanuele Giaccherini 26 true 	 score 1-0
21:38:00 	 TIR 	 Emanuele Giaccherini 11 true
21:47:00 	 F1P 	  	 score 0-1
22:02:00 	 D2P 	  	 score 0-1
22:11:00 	 TIR 	 Jordan Lukaku 6 true
22:23:00 	 CJA 	 Giorgio Chiellini 15 true
22:32:00 	 CGT 	 Divock Origi 3 true;Jordan Lukaku 0 false
22:32:00 	 CJA 	 Éder 4 true
22:49:00 	 BUT 	 Graziano Pellè 39 true 	 score 2-0
22:48:00 	 CJA 	 Jan Vertonghen 6 true
22:51:00 	 F2P 	  	 score 0-2
